ISim log file
Running: E:\Jheel\Xilinx Codes\PongChuExamples\example3.11.2\dual_priority_encoder_8bit_tb_isim_beh.exe -intstyle ise -gui -tclbatch isim.cmd -wdb E:/Jheel/Xilinx Codes/PongChuExamples/example3.11.2/dual_priority_encoder_8bit_tb_isim_beh.wdb 
ISim P.20131013 (signature 0x7708f090)
This is a Full version of ISim.
Time resolution is 1 ps
# onerror resume
# wave add /
# run 1000 ns
Simulator is doing circuit initialization process.
Finished circuit initialization process.
